{
  "countPerPage": 10,
  "entries": [
    {
      "collection": true,
      "createdTime": 1487666908000,
      "downloadCount": 0,
      "gradeId": 0,
      "id": 64,
      "previewImg": "/data/img/preview",
      "resourceName": "AI Schedule调度平台容器化整合技术建议方案V1.1.ppt",
      "resourcePhysicalId": "9f39e0c0-a704-4338-9d07-2b80973baada",
      "resourceSize": 0,
      "resourceTypeId": 2,
      "resourceTypeSuffix": "ppt",
      "schoolId": 0,
      "staffId": 2,
      "staffName": "李四",
      "status": 3,
      "subjectId": 1,
      "subjectName": "语文",
      "updatedTime": 1491633577000,
      "userId": 100000
    },
    {
      "collection": true,
      "createdTime": 1487684783000,
      "downloadCount": 0,
      "gradeId": 0,
      "id": 66,
      "previewImg": "/data/img/preview",
      "resourceName": "（2016年秋季版）《〈论语〉十二章》教学设计4.doc",
      "resourcePhysicalId": "11a5c075-255f-498b-9ad0-085e5f645b5f",
      "resourceSize": 0,
      "resourceTypeId": 4,
      "resourceTypeSuffix": "doc",
      "schoolId": 0,
      "staffId": 2,
      "staffName": "李四",
      "status": 3,
      "subjectId": 1,
      "subjectName": "语文",
      "updatedTime": 1491355895000,
      "userId": 100000
    },
    {
      "collection": true,
      "createdTime": 1487684914000,
      "downloadCount": 0,
      "gradeId": 0,
      "id": 67,
      "previewImg": "/data/img/preview",
      "resourceName": "（2016年秋季版）《〈论语〉十二章》课件2.ppt",
      "resourcePhysicalId": "67efc8af-2f99-4ec2-a207-2e8b98a41991",
      "resourceSize": 0,
      "resourceTypeId": 4,
      "resourceTypeSuffix": "ppt",
      "schoolId": 0,
      "staffId": 2,
      "staffName": "李四",
      "status": 1,
      "subjectId": 1,
      "subjectName": "语文",
      "updatedTime": 1487684914000,
      "userId": 100000
    },
    {
      "collection": true,
      "createdTime": 1487685108000,
      "downloadCount": 0,
      "gradeId": 0,
      "id": 68,
      "previewImg": "/data/img/preview",
      "resourceName": "（2016年秋季版）《狼》教学设计1.doc",
      "resourcePhysicalId": "4efca6cf-e588-4f24-8d0d-c9e54605606b",
      "resourceSize": 0,
      "resourceTypeId": 4,
      "resourceTypeSuffix": "doc",
      "schoolId": 0,
      "staffId": 2,
      "staffName": "李四",
      "status": 1,
      "subjectId": 1,
      "subjectName": "语文",
      "updatedTime": 1487685108000,
      "userId": 100000
    },
    {
      "collection": false,
      "createdTime": 1487685389000,
      "downloadCount": 0,
      "gradeId": 0,
      "id": 69,
      "previewImg": "/data/img/preview",
      "resourceName": "（2016年秋季版）《〈世说新语〉两则》教学设计5.doc",
      "resourcePhysicalId": "2ced80c7-09ac-497f-9d9a-b016ced2301f",
      "resourceSize": 0,
      "resourceTypeId": 4,
      "resourceTypeSuffix": "doc",
      "schoolId": 0,
      "staffId": 2,
      "staffName": "李四",
      "status": 1,
      "subjectId": 2,
      "subjectName": "数学",
      "updatedTime": 1487685389000,
      "userId": 100000
    },
    {
      "collection": false,
      "createdTime": 1487685490000,
      "downloadCount": 0,
      "gradeId": 0,
      "id": 70,
      "previewImg": "/data/img/preview",
      "resourceName": "（2016年秋季版）《〈论语〉十二章》教学设计6.doc",
      "resourcePhysicalId": "089524d2-3d71-47ab-8ca7-78684a1bfba5",
      "resourceSize": 0,
      "resourceTypeId": 1,
      "resourceTypeSuffix": "doc",
      "schoolId": 0,
      "staffId": 50,
      "staffName": "50",
      "status": 1,
      "subjectId": 2,
      "subjectName": "数学",
      "updatedTime": 1487685490000,
      "userId": 100010
    },
    {
      "collection": false,
      "createdTime": 1487771548000,
      "downloadCount": 0,
      "gradeId": 0,
      "id": 71,
      "previewImg": "/data/img/preview",
      "resourceName": "（2016年秋季版）《画》课件1.ppt",
      "resourcePhysicalId": "a6d4c1c4-fe75-4392-9461-ac6d5180fa74",
      "resourceSize": 0,
      "resourceTypeId": 2,
      "resourceTypeSuffix": "ppt",
      "schoolId": 0,
      "staffId": 2,
      "staffName": "李四",
      "status": 1,
      "subjectId": 1,
      "subjectName": "语文",
      "updatedTime": 1487771548000,
      "userId": 100000
    },
    {
      "collection": false,
      "createdTime": 1487812470000,
      "downloadCount": 0,
      "gradeId": 0,
      "id": 72,
      "previewImg": "/data/img/preview",
      "resourceName": "（2016年秋季版）《〈论语〉十二章》教学设计4.doc",
      "resourcePhysicalId": "78946e7c-f0a4-466e-8ae5-1c175ead3bb7",
      "resourceSize": 0,
      "resourceTypeId": 1,
      "resourceTypeSuffix": "doc",
      "schoolId": 0,
      "staffId": 50,
      "staffName": "50",
      "status": 1,
      "subjectId": 1,
      "subjectName": "语文",
      "updatedTime": 1487812470000,
      "userId": 100010
    },
    {
      "collection": false,
      "createdTime": 1487813069000,
      "downloadCount": 0,
      "gradeId": 0,
      "id": 74,
      "previewImg": "/data/img/preview",
      "resourceName": "（2016年秋季版）《〈论语〉十二章》教学设计1.doc",
      "resourcePhysicalId": "124ff81c-5a6c-4a37-ac57-a6e36466c917",
      "resourceSize": 0,
      "resourceTypeId": 2,
      "resourceTypeSuffix": "doc",
      "schoolId": 0,
      "staffId": 50,
      "staffName": "50",
      "status": 1,
      "subjectId": 2,
      "subjectName": "数学",
      "updatedTime": 1487813069000,
      "userId": 100010
    },
    {
      "collection": false,
      "createdTime": 1487813088000,
      "downloadCount": 0,
      "gradeId": 0,
      "id": 75,
      "previewImg": "/data/img/preview",
      "resourceName": "（2016年秋季版）《〈论语〉十二章》课件2.ppt",
      "resourcePhysicalId": "a5d33640-628a-43fa-9b4d-cc6e2c7636e4",
      "resourceSize": 0,
      "resourceTypeId": 1,
      "resourceTypeSuffix": "ppt",
      "schoolId": 0,
      "staffId": 50,
      "staffName": "50",
      "status": 1,
      "subjectId": 2,
      "subjectName": "数学",
      "updatedTime": 1487813088000,
      "userId": 100010
    }
  ],
  "hasNext": true,
  "hasPrevious": false,
  "pageIndex": 0,
  "pageNumber": 1,
  "totalCount": 16,
  "totalPage": 2
}